{
	"AssetInfoVersion": 2,
	"ShaderCodeToAssets": [
		{
			"ShaderMapHash": "B52E1F00CCAED807C15A9AFC0F76A287B1CC8E00",
			"Assets": [
				"/Interchange/gltf/MaterialInstances/MI_Unlit_Opaque_DS"
			]
		},
		{
			"ShaderMapHash": "E887E2014001CC1284960B18E957C69EA9AE23FB",
			"Assets": [
				"/Interchange/gltf/MaterialInstances/MI_Unlit_Blend_DS"
			]
		},
		{
			"ShaderMapHash": "332766048AF503C46DE49A2E126E0CD3B319AAC0",
			"Assets": [
				"/Game/Assets/Materials/M_EmissiveBase"
			]
		},
		{
			"ShaderMapHash": "9B5F1205A792DB0D2E63E352DED5402A5C6B1241",
			"Assets": [
				"/Interchange/gltf/M_Unlit"
			]
		},
		{
			"ShaderMapHash": "69E95806D3604DFCA9D8FED1CB83D0268C8B3459",
			"Assets": [
				"/Game/Assets/Materials/M_ParticleBase"
			]
		},
		{
			"ShaderMapHash": "DAA16F0712DC83866081B2AE5B58EBA8C1B0AA91",
			"Assets": [
				"/Interchange/gltf/MaterialInstances/MI_ClearCoat_Opaque_DS"
			]
		},
		{
			"ShaderMapHash": "583E3F09DA130AB2150236D4F6D187879634780A",
			"Assets": [
				"/Interchange/gltf/MaterialInstances/MI_Default_Opaque_DS"
			]
		},
		{
			"ShaderMapHash": "876A8509ADF6983AB6127289CBBB7B94B128028C",
			"Assets": [
				"/Engine/EngineMaterials/DefaultMaterial"
			]
		},
		{
			"ShaderMapHash": "0B04B40E49BD5E920A5D27E53A91106ABB3C8987",
			"Assets": [
				"/Interchange/gltf/MaterialInstances/MI_Default_Mask_DS"
			]
		},
		{
			"ShaderMapHash": "58B1C50E2263C3F7A093B4636964549D4751AE2E",
			"Assets": [
				"/Interchange/gltf/MaterialInstances/MI_SpecularGlossiness_Blend_DS"
			]
		},
		{
			"ShaderMapHash": "F054F611C1D0DB0CF5E64624CDB40F0305465073",
			"Assets": [
				"/ControlRig/Controls/ControlRigXRayMaterial"
			]
		},
		{
			"ShaderMapHash": "5CD90E1218FE2BC26E44705469763671EB05FDCD",
			"Assets": [
				"/Engine/EngineMaterials/DefaultPostProcessMaterial"
			]
		},
		{
			"ShaderMapHash": "CEFB48128FF01D3C079FDA728288E4D700BB3D28",
			"Assets": [
				"/Interchange/gltf/M_Default"
			]
		},
		{
			"ShaderMapHash": "9D1EC815FCFE026ABCC343AD71D6F5DB7E15C7E3",
			"Assets": [
				"/Engine/EngineMaterials/PPM_DefaultCalibrationColor"
			]
		},
		{
			"ShaderMapHash": "ED3C7F18149F614CCCBAF4C23342728E4306A946",
			"Assets": [
				"/Engine/EngineMaterials/Widget3DPassThrough_Masked"
			]
		},
		{
			"ShaderMapHash": "3BB43C1BD1DE8D66FCE4D7F47FA7E493DD8D0038",
			"Assets": [
				"/Interchange/gltf/MaterialInstances/MI_Unlit_Blend"
			]
		},
		{
			"ShaderMapHash": "A191811C5DB5991557970E6B9CBEF420916FE415",
			"Assets": [
				"/Engine/VREditor/TransformGizmo/Main"
			]
		},
		{
			"ShaderMapHash": "E0B72E1E220B4807DCDF1B469A0FB2F77ED1FAAF",
			"Assets": [
				"/MeshModelingToolset/Materials/M_DynamicMeshComponentVtxColor"
			]
		},
		{
			"ShaderMapHash": "26130621326E643DE16B1FD5E1507983025B44C7",
			"Assets": [
				"/Interchange/gltf/MaterialInstances/MI_Transmission_DS"
			]
		},
		{
			"ShaderMapHash": "6B087627966B66EC444186BFB3E28A0A5A44FB81",
			"Assets": [
				"/Interchange/gltf/M_ClearCoat"
			]
		},
		{
			"ShaderMapHash": "8A440A28073F8FFBA4CE78BC597A0A5503C3EA0A",
			"Assets": [
				"/Interchange/gltf/MaterialInstances/MI_ClearCoat_Mask_DS"
			]
		},
		{
			"ShaderMapHash": "77A3A82E385E6CB932CCB6ADC60968FDF14BBDC8",
			"Assets": [
				"/Interchange/gltf/MaterialInstances/MI_ClearCoat_Blend"
			]
		},
		{
			"ShaderMapHash": "16D8FE2EF233FDCC4B274E69FED8F203150F0D68",
			"Assets": [
				"/Engine/EngineMaterials/PhAT_JointLimitMaterial"
			]
		},
		{
			"ShaderMapHash": "6034C538A301AB33237CCDAC13B69B8FBFDC83FF",
			"Assets": [
				"/Engine/EngineMaterials/Widget3DPassThrough",
				"/Engine/EngineMaterials/Widget3DPassThrough_Translucent_OneSided"
			]
		},
		{
			"ShaderMapHash": "4E68E73C213DB8182D32EC6DFED98DEE438DABCB",
			"Assets": [
				"/Engine/EngineMaterials/DefaultDeferredDecalMaterial"
			]
		},
		{
			"ShaderMapHash": "B42DFD3E6D57209A942B07F157D676BA3EAF29DA",
			"Assets": [
				"/Engine/EngineMaterials/DefaultLightFunctionMaterial"
			]
		},
		{
			"ShaderMapHash": "320CDD401E151F5CC714EE553957578BCA2EBF02",
			"Assets": [
				"/Engine/EngineMaterials/NaniteHiddenSectionMaterial"
			]
		},
		{
			"ShaderMapHash": "428196425AA220EDA5A5E28ACBD4BF917F63F12F",
			"Assets": [
				"/Interchange/gltf/MaterialInstances/MI_Sheen_Blend"
			]
		},
		{
			"ShaderMapHash": "330CC643A8ED7DA3556727C78310B524B6ED24B4",
			"Assets": [
				"/Engine/EngineMaterials/FlattenMaterial",
				"/Engine/EngineMaterials/FlattenMaterial_VT"
			]
		},
		{
			"ShaderMapHash": "39929646DBD5649A43AB72B500E78C7326430533",
			"Assets": [
				"/Interchange/gltf/MaterialInstances/MI_SpecularGlossiness_Blend"
			]
		},
		{
			"ShaderMapHash": "33A8D147EF0375454C59CA6C643345594E75FFC7",
			"Assets": [
				"/Engine/EngineDebugMaterials/DebugMeshMaterial"
			]
		},
		{
			"ShaderMapHash": "D6680548DFE49C1A2C69FCA51FBB438448771FBD",
			"Assets": [
				"/Engine/EngineMaterials/GizmoMaterial"
			]
		},
		{
			"ShaderMapHash": "0033D34A2F4F97C97EA1816078772F0646E9EF89",
			"Assets": [
				"/Engine/EngineMaterials/Widget3DPassThrough_Masked_OneSided"
			]
		},
		{
			"ShaderMapHash": "5F8DD94F78FD4D802642B20F2944BD8B7310A567",
			"Assets": [
				"/Interchange/gltf/M_Sheen"
			]
		},
		{
			"ShaderMapHash": "F3F16F580CCD0648A6CBAB1128925B2B2928062D",
			"Assets": [
				"/Engine/VREditor/SnapGrid/SnapGridMaterial"
			]
		},
		{
			"ShaderMapHash": "3C137167C575C8DA5015D2FEDF150BB132E5ECA0",
			"Assets": [
				"/Engine/EngineMaterials/WorldGridMaterial"
			]
		},
		{
			"ShaderMapHash": "DF59966718A547F18B982F0B08D65F6C14D9D712",
			"Assets": [
				"/Game/Assets/Materials/Base/M_Grid_Inst"
			]
		},
		{
			"ShaderMapHash": "A904E767C40BEFEFD2AF9DA2A5F5CA09DFF28877",
			"Assets": [
				"/Engine/EngineMaterials/M_InvalidLightmapSettings"
			]
		},
		{
			"ShaderMapHash": "FD9D826A181223FFA8973616259762977E852C47",
			"Assets": [
				"/Interchange/gltf/MaterialInstances/MI_Default_Blend"
			]
		},
		{
			"ShaderMapHash": "D0962070D1EFDB2EF2C93743A59B1348A655E422",
			"Assets": [
				"/SpeedTreeImporter/SpeedTree9/SpeedTreeMaster"
			]
		},
		{
			"ShaderMapHash": "96B030703B088BAEDCA5E8382DA0D8A3B402C1C6",
			"Assets": [
				"/Engine/EngineSky/VolumetricClouds/m_SimpleVolumetricCloud"
			]
		},
		{
			"ShaderMapHash": "D0CAB370B33CE7B7A3D3ED890BAF3FE11FEFAFBC",
			"Assets": [
				"/Engine/EngineMaterials/Widget3DPassThrough_Translucent"
			]
		},
		{
			"ShaderMapHash": "979A4475E0B6772FE78F89F40310043023AB5238",
			"Assets": [
				"/Engine/EditorMaterials/Camera/CineMat"
			]
		},
		{
			"ShaderMapHash": "239FCE79F06C0BE9976135AC0D3B2783BE974F36",
			"Assets": [
				"/Engine/EngineSky/M_Sky_Panning_Clouds2"
			]
		},
		{
			"ShaderMapHash": "49D3FF7B126457D23C44BD8BE5C422C6045DBD70",
			"Assets": [
				"/Engine/EngineMaterials/FlattenMaterial_WS_Normal_VT"
			]
		},
		{
			"ShaderMapHash": "956C0B7C49BEEAFF7AB319D3F29EFDFB03928D4E",
			"Assets": [
				"/Interchange/gltf/MaterialInstances/MI_SpecularGlossiness_Mask_DS"
			]
		},
		{
			"ShaderMapHash": "C5640D7CF09079AE4ECB38C51A5FB75F45949787",
			"Assets": [
				"/Interchange/gltf/MaterialInstances/MI_Sheen_Mask_DS"
			]
		},
		{
			"ShaderMapHash": "0EA1227FF5CE7CF1859E669782B686D5C2EF0693",
			"Assets": [
				"/Interchange/gltf/MaterialInstances/MI_Sheen_Blend_DS"
			]
		},
		{
			"ShaderMapHash": "ABFF267F4A5A10C4D79AF096123116690BC088D5",
			"Assets": [
				"/Engine/EngineMaterials/PPM_DefaultCalibrationGrayscale"
			]
		},
		{
			"ShaderMapHash": "70F41084DC7274E8BDC9D6CA5F79A8B4A8BA00A5",
			"Assets": [
				"/Engine/EngineMaterials/Widget3DPassThrough_Opaque_OneSided"
			]
		},
		{
			"ShaderMapHash": "D674888DB57FDEEF69631175192661BDE7DBB083",
			"Assets": [
				"/Interchange/gltf/MaterialInstances/MI_Unlit_Mask"
			]
		},
		{
			"ShaderMapHash": "AB7F5F918EB9886C8E52123DCC8A045AF8F02874",
			"Assets": [
				"/Engine/EngineDebugMaterials/DebugEditorMaterial"
			]
		},
		{
			"ShaderMapHash": "D0B27E91A8140BCA61EFE5503623AE0F890A2F05",
			"Assets": [
				"/Engine/EngineDebugMaterials/M_SimpleUnlitTranslucent"
			]
		},
		{
			"ShaderMapHash": "9A805098C42C67B3FA48E9A48F53CADC3E7E5366",
			"Assets": [
				"/Interchange/gltf/MaterialInstances/MI_Sheen_Opaque_DS"
			]
		},
		{
			"ShaderMapHash": "440ED4980DEEA500D2DC86924A327CCE27EE245C",
			"Assets": [
				"/Engine/EngineMaterials/RemoveSurfaceMaterial"
			]
		},
		{
			"ShaderMapHash": "AFF4069943148BEDEFB850C29CE2AA9947255EAE",
			"Assets": [
				"/ControlRig/M_Manip"
			]
		},
		{
			"ShaderMapHash": "82E6DC9C596DD6AAA8C097ED02381484874420E5",
			"Assets": [
				"/Paper2D/OpaqueUnlitSpriteMaterial"
			]
		},
		{
			"ShaderMapHash": "7BDC1FA06BE59BF740629282C15475DC3B0B5935",
			"Assets": [
				"/Engine/EngineDebugMaterials/M_VolumeRenderSphereTracePP"
			]
		},
		{
			"ShaderMapHash": "533210A191DDE777697662714A8C479C4C8D8B94",
			"Assets": [
				"/Engine/EditorMaterials/PreviewShadowIndicatorMaterial"
			]
		},
		{
			"ShaderMapHash": "2AE5C0AB677058B151304286BCABB0A5DB5E0C34",
			"Assets": [
				"/Interchange/gltf/MaterialInstances/MI_Unlit_Mask_DS"
			]
		},
		{
			"ShaderMapHash": "B3602CB5BE34B235EC8ACE178C59D95B6347228F",
			"Assets": [
				"/Engine/EngineMaterials/EmissiveMeshMaterial"
			]
		},
		{
			"ShaderMapHash": "E3780AB90509F0D202291E2324BAE8E831143E70",
			"Assets": [
				"/Interchange/gltf/MaterialInstances/MI_SpecularGlossiness_Mask"
			]
		},
		{
			"ShaderMapHash": "46CE29C152BD5C620B1730D3A1ED0D6B80AB4758",
			"Assets": [
				"/Game/Assets/Materials/M_TextureBase"
			]
		},
		{
			"ShaderMapHash": "2B8F69C215EBFD12AAF73B462E9B4CABD3858E88",
			"Assets": [
				"/Interchange/gltf/M_SpecularGlossiness"
			]
		},
		{
			"ShaderMapHash": "38D40CCAEB82E9EB230018255E3E3485A98C9E5B",
			"Assets": [
				"/Interchange/gltf/M_Transmission"
			]
		},
		{
			"ShaderMapHash": "5BEAA9CB39711C335230B055AEC3243143E32675",
			"Assets": [
				"/Engine/VREditor/TransformGizmo/TranslucentTransformGizmoMaterial"
			]
		},
		{
			"ShaderMapHash": "E3E28DCC23B91583170180881B052C88A5A1E94C",
			"Assets": [
				"/Engine/EditorLandscapeResources/SplineEditorMeshMat"
			]
		},
		{
			"ShaderMapHash": "CDD6F6D0AAACD600E94525FBEEA46E214381CE46",
			"Assets": [
				"/Engine/EditorMaterials/PhAT_UnselectedMaterial"
			]
		},
		{
			"ShaderMapHash": "3E481FD556500629B5BD4D42760074172FAB0947",
			"Assets": [
				"/Engine/EditorMaterials/PhAT_NoCollisionMaterial"
			]
		},
		{
			"ShaderMapHash": "047DE9D7823D4726457267F1386B49881A31125B",
			"Assets": [
				"/Engine/EngineMeshes/BackgroundMaterial"
			]
		},
		{
			"ShaderMapHash": "D0F0ADD981E98C754967A2D65578BE04D0215239",
			"Assets": [
				"/Engine/VREditor/TransformGizmo/TransformGizmoMaterial"
			]
		},
		{
			"ShaderMapHash": "8E38FCD94785BAFBD8448A3D37057D3B339EE3D3",
			"Assets": [
				"/Paper2D/DefaultSpriteMaterial"
			]
		},
		{
			"ShaderMapHash": "888E84DA6D2FF703DED5EB044CA5E9288ABBA1BC",
			"Assets": [
				"/Game/Assets/Materials/Base/M_GridBase"
			]
		},
		{
			"ShaderMapHash": "C11799DBC510DDA5EDAF8DA24DC7A63CF0959A6A",
			"Assets": [
				"/Interchange/gltf/MaterialInstances/MI_ClearCoat_Mask"
			]
		},
		{
			"ShaderMapHash": "FF1459DF79C16FFF982BBFEFCA2F91074D0BB4FC",
			"Assets": [
				"/Engine/EngineMaterials/DefaultTextMaterialOpaque"
			]
		},
		{
			"ShaderMapHash": "F9506EDF1C4EFA38AC0002A537C3173507C6B07F",
			"Assets": [
				"/Engine/VREditor/TransformGizmo/Xray"
			]
		},
		{
			"ShaderMapHash": "E74C3AE1977BE47D188CD23358E169CBB2239DEB",
			"Assets": [
				"/Engine/EngineMaterials/Widget3DPassThrough_Opaque"
			]
		},
		{
			"ShaderMapHash": "8599D5E28511A4F5740673E2AF8965ACFC2D5715",
			"Assets": [
				"/SpeedTreeImporter/SpeedTree9/SpeedTreeBillboardMaster"
			]
		},
		{
			"ShaderMapHash": "8FC747E37AB725E3F60F54292C29790FF5274180",
			"Assets": [
				"/Interchange/gltf/MaterialInstances/MI_Sheen_Mask"
			]
		},
		{
			"ShaderMapHash": "4927A6EE827CB91675EF41CFDDA067ADA2E25093",
			"Assets": [
				"/Interchange/gltf/MaterialInstances/MI_Default_Mask"
			]
		},
		{
			"ShaderMapHash": "FF1145F6A7D2C96D666CB7F3A5DFD7F11B0D3512",
			"Assets": [
				"/ControlRig/Controls/ControlRigGizmoMaterial"
			]
		},
		{
			"ShaderMapHash": "CA72D0F7944C4563C70D133F64977044A60EBE0B",
			"Assets": [
				"/Interchange/gltf/MaterialInstances/MI_ClearCoat_Blend_DS"
			]
		},
		{
			"ShaderMapHash": "9CC9BCFB1252CD82B805F55F219E2DC1B1C5BCF4",
			"Assets": [
				"/Interchange/gltf/MaterialInstances/MI_Default_Blend_DS"
			]
		},
		{
			"ShaderMapHash": "9F7AA6FD9E1FB9EC7BC35C7BCF6EB83B7AA3F46F",
			"Assets": [
				"/Interchange/gltf/MaterialInstances/MI_SpecularGlossiness_Opaque_DS"
			]
		}
	]
}